{
	"properties": {
		"code": {
			"required": true,
			"type": "String"
		},
		"LCID": {
			"required": true,
			"type": "Configuration",
			"value": "Change/I18n/supported-lcids",
			"equivalent": "refLCID"
		},
		"value": {
			"required": true,
			"type": "String"
		},
		"title": {
			"required": true,
			"type": "String"
		},
		"colorCode": {
			"required": false,
			"type": "Regex",
			"pattern": "^#(?:[0-9a-fA-F]{3}){1,2}$"
		},
		"visual": {
			"required": false,
			"type": "Document",
			"model": "Rbs_Media_Image"
		}
	}
}