{
	"properties": {
		"email": {
			"required": true,
			"type": "String"
		},
		"LCID": {
			"required": true,
			"type": "Configuration",
			"value": "Change/I18n/supported-lcids"
		},
		"optins": {
			"required": false,
			"type": "DocumentArray",
			"model": "Rbs_Mailinglist_MailingList"
		}
	}
}