{
	"properties": {
		"email": {
			"required": true,
			"type": "String"
		},
		"password": {
			"required": false,
			"type": "String"
		},
		"hashMethod": {
			"required": false,
			"type": "String"
		},
		"login": {
			"required": false,
			"type": "String"
		},
		"groups": {
			"required": false,
			"type": "DocumentArray",
			"model": "Rbs_User_Group"
		},
		"clearPassword": {
			"required": false,
			"type": "String"
		},
		"typology": {
			"required": false,
			"type": "Document",
			"model": "Rbs_Generic_Typology"
		},
		"fidelity": {
			"required": false,
			"type": "String"
		}
	}
}