{
	"/": {
		"module": "Rbs_Seo",
		"name": "home",
		"rule": {
			"templateUrl": "Rbs/Seo/Ua/views/dashboard.twig",
			"labelKey": "m.rbs.seo.ua.dashboard | ucf"
		}
	},
	"/Profile": {
		"module": "Rbs_Seo",
		"name": "profile",
		"rule": {
			"templateUrl": "Rbs/Seo/Ua/views/profile.twig",
			"labelKey": "m.rbs.ua.common.profile | ucf"
		}
	},
	"/urls/": {
		"module": "Rbs_Seo",
		"name": "urls",
		"rule": {
			"templateUrl": "Rbs/Seo/Ua/views/urls-home.twig",
			"labelKey": "m.rbs.seo.ua.urls_title | ucf"
		}
	},
	"/urls/modelPathRules/": {
		"module": "Rbs_Seo",
		"name": "modelPathRules",
		"rule": {
			"templateUrl": "Rbs/Seo/Ua/views/modelPathRules/list.twig",
			"labelKey": "m.rbs.seo.ua.model_path_rules_list | ucf"
		}
	},
	"/urls/documentPathRules/": {
		"module": "Rbs_Seo",
		"name": "documentPathRules",
		"rule": {
			"templateUrl": "Rbs/Seo/Ua/views/documentPathRules/list.twig",
			"labelKey": "m.rbs.seo.ua.document_path_rules_list | ucf"
		}
	},
	"/urls/pathRule/": {
		"module": "Rbs_Seo",
		"name": "pathRule",
		"rule": {
			"templateUrl": "Rbs/Seo/Ua/views/pathRule/list.twig",
			"labelKey": "m.rbs.seo.ua.path_rule_list | ucf"
		}
	},
	"/urls/url404/": {
		"module": "Rbs_Seo",
		"name": "url404",
		"rule": {
			"templateUrl": "Rbs/Seo/Ua/views/url404/list.twig",
			"labelKey": "m.rbs.seo.ua.404_list | ucf"
		}
	},
	"/urls/facetUrlGroup/": {
		"module": "Rbs_Seo",
		"name": "facetUrlGroup",
		"rule": {
			"templateUrl": "Rbs/Seo/Ua/views/facetUrlGroup/list.twig",
			"labelKey": "m.rbs.seo.ua.facet_url_group_list | ucf"
		}
	},
	"/metas/": {
		"module": "Rbs_Seo",
		"name": "metas",
		"rule": {
			"templateUrl": "Rbs/Seo/Ua/views/metas-home.twig",
			"labelKey": "m.rbs.seo.ua.metas_title | ucf"
		}
	},
	"/metas/definitions/": {
		"module": "Rbs_Seo",
		"name": "metaDefinitions",
		"rule": {
			"templateUrl": "Rbs/Seo/Ua/views/metaDefinition/list.twig",
			"labelKey": "m.rbs.seo.ua.meta_definitions_title | ucf"
		}
	},
	"/metas/groups/": {
		"module": "Rbs_Seo",
		"name": "metaGroups",
		"rule": {
			"templateUrl": "Rbs/Seo/Ua/views/metaGroup/list.twig",
			"labelKey": "m.rbs.seo.ua.meta_groups_title | ucf"
		}
	},
	"/metas/model/": {
		"module": "Rbs_Seo",
		"name": "modelMetas",
		"rule": {
			"templateUrl": "Rbs/Seo/Ua/views/modelMetas/list.twig",
			"labelKey": "m.rbs.seo.ua.model_metas_list | ucf"
		}
	},
	"/metas/document/": {
		"module": "Rbs_Seo",
		"name": "documentMetas",
		"rule": {
			"templateUrl": "Rbs/Seo/Ua/views/documentMetas/list.twig",
			"labelKey": "m.rbs.seo.ua.document_metas_list | ucf"
		}
	},
	"/sitemap/": {
		"module": "Rbs_Seo",
		"name": "sitemap",
		"rule": {
			"templateUrl": "Rbs/Seo/Ua/views/sitemap-home.twig",
			"labelKey": "m.rbs.seo.ua.sitemap_title | ucf"
		}
	},
	"/sitemap/model/": {
		"module": "Rbs_Seo",
		"name": "modelSitemap",
		"rule": {
			"templateUrl": "Rbs/Seo/Ua/views/modelSitemap/list.twig",
			"labelKey": "m.rbs.seo.ua.model_sitemap_list | ucf"
		}
	},
	"/sitemap/document/": {
		"module": "Rbs_Seo",
		"name": "documentSitemap",
		"rule": {
			"templateUrl": "Rbs/Seo/Ua/views/documentSitemap/list.twig",
			"labelKey": "m.rbs.seo.ua.document_sitemap_list | ucf"
		}
	}
}