{
	"rbs_elasticsearch_doc_facet": {
		"indexes": {
			"BY_INDEX": {
				"type": "INDEX",
				"fields": [
					"indexname"
				]
			}
		}
	},
	"rbs_elasticsearch_rel_facet": {
		"indexes": {
			"CACHE_DOC": {
				"type": "INDEX",
				"fields": [
					"document_id"
				]
			}
		}
	}
}