{
	"/Rbs/Generic/": {
		"module": "Rbs_Generic",
		"name": "home",
		"rule": {
			"templateUrl": "Rbs/Generic/settings.twig",
			"labelKey": "m.rbs.generic.admin.module_name | ucf"
		},
		"auto": false
	},
	"/Rbs/Generic/Attribute/": {
		"model": "Rbs_Generic_Attribute",
		"name": "list",
		"rule": {
			"templateUrl": "Document/Rbs/Generic/Attribute/list.twig",
			"labelKey": "m.rbs.generic.admin.attribute_list | ucf"
		},
		"auto": true
	},
	"/Rbs/Generic/Attribute/:id": {
		"model": "Rbs_Generic_Attribute",
		"name": "edit",
		"rule": {
			"templateUrl": "Document/Rbs/Generic/Attribute/edit.twig",
			"labelKey": "m.rbs.generic.documents.attribute | ucf",
			"labelId": "id"
		},
		"auto": true
	},
	"/Rbs/Generic/Attribute/:id/translate/:LCID": {
		"model": "Rbs_Generic_Attribute",
		"name": "translate",
		"rule": {
			"templateUrl": "Document/Rbs/Generic/Attribute/translate.twig",
			"controller": "RbsChangeTranslateEditorController",
			"labelKey": "m.rbs.admin.admin.translation | ucf"
		},
		"auto": true
	},
	"/Rbs/Generic/Attribute/new": {
		"model": "Rbs_Generic_Attribute",
		"name": "new",
		"rule": {
			"templateUrl": "Document/Rbs/Generic/Attribute/new.twig",
			"labelKey": "m.rbs.admin.admin.new_resource | ucf"
		},
		"auto": true
	},
	"/Rbs/Generic/InitializeWebsite/": {
		"module": "Rbs_Generic",
		"name": "InitializeWebsite",
		"rule": {
			"templateUrl": "Rbs/Generic/initialize-website.twig",
			"labelKey": "m.rbs.generic.admin.initialize_for_website | ucf"
		},
		"auto": false
	},
	"/Rbs/Generic/Job/Failed": {
		"module": "Rbs_Generic",
		"name": "FailedJobs",
		"rule": {
			"templateUrl": "Rbs/Generic/jobs-failed.twig",
			"labelKey": "m.rbs.generic.admin.failed_jobs | ucf"
		},
		"auto": false
	},
	"/Rbs/Generic/Job/Running": {
		"module": "Rbs_Generic",
		"name": "RunningJobs",
		"rule": {
			"templateUrl": "Rbs/Generic/jobs-running.twig",
			"labelKey": "m.rbs.generic.admin.running_jobs | ucf"
		},
		"auto": false
	},
	"/Rbs/Generic/Job/Waiting": {
		"module": "Rbs_Generic",
		"name": "WaitingJobs",
		"rule": {
			"templateUrl": "Rbs/Generic/jobs-waiting.twig",
			"labelKey": "m.rbs.generic.admin.waiting_jobs | ucf"
		},
		"auto": false
	},
	"/Rbs/Generic/Plugins/Installed/": {
		"module": "Rbs_Generic",
		"name": "Installed",
		"rule": {
			"templateUrl": "Rbs/Plugins/installed-list.twig",
			"labelKey": "m.rbs.plugins.admin.installed_list | ucf"
		},
		"auto": false
	},
	"/Rbs/Generic/Plugins/New/": {
		"module": "Rbs_Generic",
		"name": "New",
		"rule": {
			"templateUrl": "Rbs/Plugins/new-list.twig",
			"labelKey": "m.rbs.plugins.admin.new_list | ucf"
		},
		"auto": false
	},
	"/Rbs/Generic/Plugins/Registered/": {
		"module": "Rbs_Generic",
		"name": "Registered",
		"rule": {
			"templateUrl": "Rbs/Plugins/registered-list.twig",
			"labelKey": "m.rbs.plugins.admin.registered_list | ucf"
		},
		"auto": false
	},
	"/Rbs/Generic/Typology/": {
		"model": "Rbs_Generic_Typology",
		"name": "list",
		"rule": {
			"templateUrl": "Document/Rbs/Generic/Typology/list.twig",
			"labelKey": "m.rbs.generic.admin.typology_list | ucf"
		},
		"auto": true
	},
	"/Rbs/Generic/Typology/:id": {
		"model": "Rbs_Generic_Typology",
		"name": "edit",
		"rule": {
			"templateUrl": "Document/Rbs/Generic/Typology/edit.twig",
			"labelKey": "m.rbs.generic.documents.typology | ucf",
			"labelId": "id"
		},
		"auto": true
	},
	"/Rbs/Generic/Typology/:id/translate/:LCID": {
		"model": "Rbs_Generic_Typology",
		"name": "translate",
		"rule": {
			"templateUrl": "Document/Rbs/Generic/Typology/translate.twig",
			"controller": "RbsChangeTranslateEditorController",
			"labelKey": "m.rbs.admin.admin.translation | ucf"
		},
		"auto": true
	},
	"/Rbs/Generic/Typology/new": {
		"model": "Rbs_Generic_Typology",
		"name": "new",
		"rule": {
			"templateUrl": "Document/Rbs/Generic/Typology/new.twig",
			"labelKey": "m.rbs.admin.admin.new_resource | ucf"
		},
		"auto": true
	},
	"/Rbs/Generic/Ua/App/": {
		"module": "Rbs_Ua",
		"name": "appList",
		"rule": {
			"templateUrl": "Rbs/Ua/app-list.twig",
			"labelKey": "m.rbs.ua.admin.app_list | ucf"
		},
		"auto": false
	}
}