{
	"SeoRules": {
		"stripAccent": {
			"enabled": true,
			"rule": {
				"method": "\\Change\\Stdlib\\StringUtils::stripAccents"
			}
		},
		"stripWhitespace": {
			"enabled": true,
			"rule": {
				"method": "Rbs\\Seo\\Std\\PathTemplateComposer::stripWhitespace",
				"substitution": " "
			}
		},
		"stripBlank": {
			"enabled": true,
			"rule": {
				"method": "Rbs\\Seo\\Std\\PathTemplateComposer::stripBlank",
				"substitution": "-"
			}
		},
		"toLowerCase": {
			"enabled": true,
			"rule": {
				"method": "\\Change\\Stdlib\\StringUtils::toLower"
			}
		},
		"toUpperCase": {
			"enabled": false,
			"rule": {
				"method": "\\Change\\Stdlib\\StringUtils::toUpper"
			}
		},
		"stripChars": {
			"enabled": true,
			"rule": {
				"method": "Rbs\\Seo\\Std\\PathTemplateComposer::stripChars"
			}
		},
		"cleanHyphen": {
			"enabled": true,
			"rule": {
				"method": "Rbs\\Seo\\Std\\PathTemplateComposer::unHyphenize"
			}
		}
	}
}