{
	"/Rbs/Elasticsearch/": {
		"module": "Rbs_Elasticsearch",
		"name": "home",
		"rule": {
			"redirectTo": "/Rbs/Elasticsearch/Facet/",
			"labelKey": "m.rbs.elasticsearch.admin.module_name | ucf"
		},
		"auto": false
	},
	"/Rbs/Elasticsearch/Facet/": {
		"model": "Rbs_Elasticsearch_Facet",
		"name": "list",
		"rule": {
			"templateUrl": "Document/Rbs/Elasticsearch/Facet/list.twig",
			"labelKey": "m.rbs.elasticsearch.admin.facet_list | ucf"
		},
		"auto": true
	},
	"/Rbs/Elasticsearch/Facet/:id": {
		"model": "Rbs_Elasticsearch_Facet",
		"name": "edit",
		"rule": {
			"templateUrl": "Document/Rbs/Elasticsearch/Facet/edit.twig",
			"labelKey": "m.rbs.elasticsearch.documents.facet | ucf",
			"labelId": "id"
		},
		"auto": true
	},
	"/Rbs/Elasticsearch/Facet/:id/translate/:LCID": {
		"model": "Rbs_Elasticsearch_Facet",
		"name": "translate",
		"rule": {
			"templateUrl": "Document/Rbs/Elasticsearch/Facet/translate.twig",
			"controller": "RbsChangeTranslateEditorController",
			"labelKey": "m.rbs.admin.admin.translation | ucf"
		},
		"auto": true
	},
	"/Rbs/Elasticsearch/Facet/new": {
		"model": "Rbs_Elasticsearch_Facet",
		"name": "new",
		"rule": {
			"templateUrl": "Document/Rbs/Elasticsearch/Facet/new.twig",
			"labelKey": "m.rbs.admin.admin.new_resource | ucf"
		},
		"auto": true
	},
	"/Rbs/Elasticsearch/FacetValuesMapping/": {
		"model": "Rbs_Elasticsearch_FacetValuesMapping",
		"name": "list",
		"rule": {
			"templateUrl": "Document/Rbs/Elasticsearch/FacetValuesMapping/list.twig",
			"labelKey": "m.rbs.elasticsearch.admin.facetvaluesmapping_list | ucf"
		},
		"auto": true
	},
	"/Rbs/Elasticsearch/FacetValuesMapping/:id": {
		"model": "Rbs_Elasticsearch_FacetValuesMapping",
		"name": "edit",
		"rule": {
			"templateUrl": "Document/Rbs/Elasticsearch/FacetValuesMapping/edit.twig",
			"labelKey": "m.rbs.elasticsearch.documents.facetvaluesmapping | ucf",
			"labelId": "id"
		},
		"auto": true
	},
	"/Rbs/Elasticsearch/FacetValuesMapping/new": {
		"model": "Rbs_Elasticsearch_FacetValuesMapping",
		"name": "new",
		"rule": {
			"templateUrl": "Document/Rbs/Elasticsearch/FacetValuesMapping/new.twig",
			"labelKey": "m.rbs.admin.admin.new_resource | ucf"
		},
		"auto": true
	}
}