{
	"models": {
		"Rbs.Ua.Meta": {
			"description": "Summary for an item.",
			"properties": {
				"id": {
					"type": "Integer",
					"required": true
				}
			}
		},
		"Rbs.Ua.DocumentMeta": {
			"extends": "Rbs.Ua.Meta",
			"description": "Summary for a document.",
			"properties": {
				"model": {
					"type": "String",
					"required": true
				}
			}
		},
		"Rbs.Ua.Success": {
			"description": "@deprecated since 1.8.0 use Rbs.Ua.Status",
			"properties": {
				"message": {
					"type": "String",
					"required": true
				}
			}
		},
		"Rbs.Ua.Status": {
			"description": "Simple status response for an action.",
			"properties": {
				"error": {
					"type": "Boolean",
					"defaultValue": false,
					"description": "True if an error occurs",
					"required": true
				},
				"message": {
					"type": "String",
					"description": "The response's message",
					"required": true
				}
			}
		},
		"Rbs.Ua.ErrorStatus": {
			"extends": "Rbs.Ua.Status",
			"description": "Simple error status response.",
			"properties": {
				"error": {
					"type": "Boolean",
					"defaultValue": true,
					"required": true
				},
				"errorCode": {
					"type": "String",
					"required": true
				}
			}
		},
		"Rbs.Ua.Pagination": {
			"description": "Pagination description",
			"properties": {
				"count": {
					"type": "Integer",
					"required": true
				},
				"offset": {
					"type": "Integer",
					"required": true
				},
				"limit": {
					"type": "Integer",
					"required": true
				}
			}
		},
		"Rbs.Ua.List": {
			"description": "@deprecated since 1.8.0 declare pagination and items separately",
			"properties": {
				"pagination": {
					"type": "Rbs.Ua.Pagination",
					"required": true
				},
				"items": {
					"type": "Object[]",
					"required": true
				}
			}
		},
		"Rbs.Ua.ImageCommon": {
			"description": "Common section of an image.",
			"properties": {
				"label": {
					"type": "String"
				},
				"alt": {
					"type": "String"
				}
			}
		},
		"Rbs.Ua.ImageSummary": {
			"description": "An image.",
			"properties": {
				"_meta": {
					"type": "Rbs.Ua.DocumentMeta"
				},
				"common": {
					"type": "Rbs.Ua.ImageCommon"
				},
				"urls": {
					"type": "Object"
				}
			}
		},
		"Rbs.Ua.ImageDisplayData": {
			"description": "Summary for an image.",
			"properties": {
				"publicUrl": {
					"type": "String",
					"required": true
				},
				"alt": {
					"type": "String"
				}
			}
		},
		"Rbs.Ua.AddressCommon": {
			"description": "Common section of an address.",
			"properties": {
				"addressFieldsId": {
					"type": "Integer",
					"required": true
				},
				"name": {
					"type": "String"
				}
			}
		},
		"Rbs.Ua.AddressSummary": {
			"description": "An address.",
			"properties": {
				"_meta": {
					"type": "Rbs.Ua.DocumentMeta"
				},
				"common": {
					"type": "Rbs.Ua.AddressCommon"
				},
				"lines": {
					"type": "String[]"
				}
			}
		},
		"Rbs.Ua.AddressDetail": {
			"extends": "Rbs.Ua.AddressSummary",
			"properties": {
				"addressModel": {
					"type": "Rbs.Ua.AddressFields"
				},
				"fields": {
					"type": "String{}"
				}
			}
		},
		"Rbs.Ua.AddressFields": {
			"description": "The address fields document.",
			"properties": {
				"_meta": {
					"type": "Rbs.Ua.DocumentMeta"
				},
				"fields": {
					"type": "Rbs.Ua.AddressField[]"
				}
			}
		},
		"Rbs.Ua.AddressField": {
			"description": "The data of one address field.",
			"properties": {
				"code": {
					"type": "String"
				},
				"title": {
					"type": "String"
				},
				"required": {
					"type": "Boolean"
				},
				"match": {
					"type": "String"
				},
				"matchErrorMessage": {
					"type": "String"
				},
				"defaultValue": {
					"type": "String"
				},
				"collectionCode": {
					"type": "String"
				},
				"availableValues": {
					"type": "Rbs.Ua.AddressFieldValue[]"
				}
			}
		},
		"Rbs.Ua.AddressFieldValue": {
			"description": "An address field possible value",
			"properties": {
				"title": {
					"type": "String"
				},
				"value": {
					"type": "String"
				}
			}
		},
		"Rbs.Ua.AddressFieldsCountryData": {
			"description": "Country data formatted for address fields.",
			"properties": {
				"_meta": {
					"type": "Rbs.Ua.DocumentMeta"
				},
				"code": {
					"type": "String"
				},
				"title": {
					"type": "String"
				},
				"addressFieldsId": {
					"type": "Integer"
				}
			}
		},
		"Rbs.Ua.Configuration": {
			"description": "Projet configuration data",
			"properties": {
				"version": {
					"type": "String"
				},
				"supportedLCIDs": {
					"type": "Rbs.Ua.Configuration.Locale[]"
				},
				"oms": {
					"type": "Rbs.Ua.Configuration.Oms"
				}
			}
		},
		"Rbs.Ua.Configuration.Oms": {
			"description": "Oms configuration",
			"properties": {
				"useLineProductComment": {
					"type": "Boolean",
					"required": true
				}
			}
		},
		"Rbs.Ua.Configuration.Locale": {
			"description": "Locale definition",
			"properties": {
				"label": {
					"type": "String",
					"required": true
				},
				"value": {
					"type": "String",
					"required": true
				}
			}
		},
		"Rbs.Ua.UserCommon": {
			"description": "Common section of a user.",
			"properties": {
				"userId": {
					"type": "Integer"
				},
				"label": {
					"type": "String"
				},
				"email": {
					"type": "String"
				},
				"avatar": {
					"type": "String"
				},
				"fullName": {
					"type": "String"
				},
				"phone": {
					"type": "Rbs.Ua.PhoneNumberData"
				},
				"mobilePhone": {
					"type": "Rbs.Ua.PhoneNumberData"
				}
			}
		},
		"Rbs.Ua.UserSummary": {
			"description": "Summary for a user.",
			"properties": {
				"_meta": {
					"type": "Rbs.Ua.DocumentMeta",
					"required": true
				},
				"common": {
					"type": "Rbs.Ua.UserCommon",
					"required": true
				}
			}
		},
		"Rbs.Ua.CurrentUser": {
			"extends": "Rbs.Ua.UserSummary",
			"description": "Current user.",
			"properties": {
				"profiles": {
					"type": "Object{}",
					"required": true
				}
			}
		},
		"Rbs.Ua.CollectionItem": {
			"description": "",
			"properties": {
				"label": {
					"type": "String",
					"required": true
				},
				"value": {
					"type": "String",
					"required": true
				}
			}
		},
		"Rbs.Ua.Collection": {
			"description": "",
			"properties": {
				"code": {
					"type": "String",
					"required": true
				},
				"items": {
					"type": "Rbs.Ua.CollectionItem[]",
					"required": true
				}
			}
		},
		"Rbs.Ua.Storage": {
			"description": "",
			"properties": {
				"storageURI": {
					"type": "String",
					"required": true
				},
				"size": {
					"type": "Integer",
					"required": true
				},
				"temporaryDownload": {
					"type": "String",
					"required": true
				},
				"mTime": {
					"type": "DateTime",
					"required": true
				},
				"mimeType": {
					"type": "String",
					"required": true
				}
			}
		},
		"Rbs.Ua.Currency": {
			"description": "The data for a currency, with all data for pxCurrency filter.",
			"properties": {
				"code": {
					"type": "String",
					"required": true
				},
				"decimals": {
					"type": "Integer",
					"required": true
				}
			}
		},
		"Rbs.Ua.DocumentModel": {
			"description": "A document model.",
			"properties": {
				"name": {
					"type": "String",
					"required": true
				},
				"label": {
					"type": "String",
					"required": true
				},
				"pluginLabel": {
					"type": "String",
					"required": true
				},
				"publishable": {
					"type": "Boolean",
					"required": true
				},
				"activable": {
					"type": "Boolean",
					"required": true
				},
				"editable": {
					"type": "Boolean",
					"required": true
				},
				"instanceOf": {
					"type": "String[]",
					"required": true
				}
			}
		},
		"Rbs.Ua.ItemForSelector": {
			"description": "A minimal item descriptor for the item selector.",
			"properties": {
				"_meta": {
					"type": "Rbs.Ua.Meta",
					"required": true
				},
				"label": {
					"type": "String",
					"required": true
				}
			}
		},
		"Rbs.Ua.UrlContext": {
			"description": "A context to generate published document URLs.",
			"properties": {
				"websiteId": {
					"type": "Integer",
					"required": true
				},
				"sectionId": {
					"type": "Integer"
				},
				"LCID": {
					"type": "String",
					"required": true
				}
			}
		},
		"Rbs.Ua.DocumentForSelector": {
			"extends": "Rbs.Ua.ItemForSelector",
			"description": "A document descriptor for the selector.",
			"properties": {
				"_meta": {
					"type": "Rbs.Ua.DocumentMeta",
					"required": true
				},
				"modelLabel": {
					"type": "String",
					"required": true
				},
				"visualUrl": {
					"type": "String"
				},
				"publishedUrl": {
					"type": "String"
				}
			}
		},
		"Rbs.Ua.PhoneNumberConfigurationItem": {
			"description": "Phone number configuration item",
			"properties": {
				"regionCode": {
					"type": "String",
					"required": true
				},
				"countryCode": {
					"type": "String",
					"required": true
				},
				"name": {
					"type": "String",
					"required": true
				},
				"sampleFixedLine": {
					"type": "String"
				},
				"sampleMobile": {
					"type": "String"
				}
			}
		},
		"Rbs.Ua.PhoneNumberData": {
			"description": "Phone number data.",
			"properties": {
				"E164": {
					"type": "String"
				},
				"national": {
					"type": "String"
				},
				"international": {
					"type": "String"
				},
				"regionCode": {
					"type": "String"
				},
				"flagCountry": {
					"type": "String"
				},
				"country": {
					"type": "String"
				},
				"countryCode": {
					"type": "String"
				},
				"type": {
					"type": "String"
				}
			}
		},
		"Rbs.Ua.AttributeGroupDefinition": {
			"description": "An attribute group definition.",
			"properties": {
				"name": {
					"type": "String",
					"required": true
				},
				"label": {
					"type": "String",
					"required": true
				},
				"attributes": {
					"type": "Rbs.Ua.AttributeDefinition[]"
				}
			}
		},
		"Rbs.Ua.AttributeDefinition": {
			"description": "An attribute group definition.",
			"properties": {
				"_meta": {
					"type": "Rbs.Ua.DocumentMeta",
					"required": true
				},
				"name": {
					"type": "String",
					"required": true
				},
				"label": {
					"type": "String",
					"required": true
				},
				"type": {
					"type": "String",
					"required": true
				},
				"documentType": {
					"type": "String"
				},
				"required": {
					"type": "Boolean",
					"required": true
				},
				"defaultValue": {
					"type": "String"
				},
				"localized": {
					"type": "Boolean",
					"required": true
				},
				"options": {
					"type": "Rbs.Ua.CollectionItem[]"
				}
			}
		},
		"Rbs.Ua.Typology.Attributes": {
			"description": "A typology detail.",
			"properties": {
				"_meta": {
					"type": "Rbs.Ua.DocumentMeta",
					"required": true
				},
				"groups": {
					"type": "Rbs.Ua.AttributeGroupDefinition[]"
				}
			}
		},
		"Rbs.Ua.BarCode.Config": {
			"description": "Barcode configuration",
			"properties": {
				"format": {
					"type": "String",
					"defaultValue": "code128"
				},
				"factor": {
					"type": "Integer",
					"defaultValue": 1
				},
				"barHeight": {
					"type": "Integer",
					"defaultValue": 50
				},
				"drawText": {
					"type": "Boolean",
					"defaultValue": true
				},
				"stretchText": {
					"type": "Boolean",
					"defaultValue": false
				},
				"font": {
					"type": "String"
				},
				"fontSize": {
					"type": "Integer"
				}
			}
		},
		"Rbs.Ua.Googlefluentd.Payload": {
			"description": "Payload for Google Stackdrivers Error Reporting tool",
			"properties": {
				"eventTime": {
					"type": "String"
				},
				"serviceContext": {
					"type": "Rbs.Ua.Googlefluentd.Payload.Service",
					"required": true
				},
				"message": {
					"type": "String",
					"required": true
				},
				"context": {
					"type": "Rbs.Ua.Googlefluentd.Payload.Context"
				}
			}
		},
		"Rbs.Ua.Googlefluentd.Payload.Service": {
			"description": "Service context relative to error for Google Stackdrivers Error Reporting tool",
			"properties": {
				"service": {
					"type": "String",
					"required": true
				},
				"version": {
					"type": "String",
					"required": true
				}
			}
		},
		"Rbs.Ua.Googlefluentd.Payload.Context": {
			"description": "Context relative to error for Google Stackdrivers Error Reporting tool",
			"properties": {
				"httpRequest": {
					"type": "Rbs.Ua.Googlefluentd.Payload.ContextRequest"
				},
				"user": {
					"type": "String"
				},
				"reportLocation": {
					"type": "Rbs.Ua.Googlefluentd.Payload.ContextLocation"
				}
			}
		},
		"Rbs.Ua.Googlefluentd.Payload.ContextRequest": {
			"description": "Http request information relative to error for Google Stackdrivers Error Reporting tool",
			"properties": {
				"method": {
					"type": "String",
					"defaultValue": ""
				},
				"url": {
					"type": "String"
				},
				"userAgent": {
					"type": "String"
				},
				"referrer": {
					"type": "String"
				},
				"responseStatusCode": {
					"type": "String"
				},
				"remoteIp": {
					"type": "String"
				}
			}
		},
		"Rbs.Ua.Googlefluentd.Payload.ContextLocation": {
			"description": "Error code location for Google Stackdrivers Error Reporting tool",
			"properties": {
				"filePath": {
					"type": "String",
					"required": true
				},
				"lineNumber": {
					"type": "String",
					"required": true
				},
				"functionName": {
					"type": "String",
					"required": true
				}
			}
		},
		"Rbs.Ua.Printable": {
			"description": "HTML page to print",
			"properties": {
				"html": {
					"type": "String"
				}
			}
		},
		"Rbs.Ua.Job": {
			"description": "Job information",
			"properties": {
				"id": {
					"type": "Integer",
					"required": true
				},
				"status": {
					"type": "String",
					"required": true
				},
				"jobData": {
					"type": "Object"
				}
			}
		}
	}
}